%YAML 1.1
%TAG !u! tag:unity3d.com,2011:
--- !u!74 &7400000
AnimationClip:
  m_ObjectHideFlags: 0
  m_PrefabParentObject: {fileID: 0}
  m_PrefabInternal: {fileID: 0}
  m_Name: Attack3
  serializedVersion: 6
  m_Legacy: 0
  m_Compressed: 0
  m_UseHighQualityCurve: 1
  m_RotationCurves: []
  m_CompressedRotationCurves: []
  m_EulerCurves: []
  m_PositionCurves: []
  m_ScaleCurves: []
  m_FloatCurves: []
  m_PPtrCurves:
  - curve:
    - time: 0
      value: {fileID: 21300000, guid: b701255b759305e4e927691ac82018d0, type: 3}
    - time: 0.083333336
      value: {fileID: 21300000, guid: ebcb77a539f81b349807bbf2396ba326, type: 3}
    - time: 0.16666667
      value: {fileID: 21300000, guid: 7e2cd327ac3f42446b380ed3e5071692, type: 3}
    - time: 0.25
      value: {fileID: 21300000, guid: 81a55281a4bd0294c8aeed7fa9bd58b7, type: 3}
    - time: 0.33333334
      value: {fileID: 21300000, guid: f193dffa1482aff42bac6dd1264ded9b, type: 3}
    - time: 0.41666666
      value: {fileID: 21300000, guid: 1a4af29d2f130d14f8e34f5733c9f8c4, type: 3}
    - time: 0.5
      value: {fileID: 21300000, guid: ba31ebffb0aeb564980c75cec045baf1, type: 3}
    - time: 0.5833333
      value: {fileID: 21300000, guid: b446fc25620e6af44ac70c7864fae366, type: 3}
    - time: 0.6666667
      value: {fileID: 21300000, guid: 9301efcadd368ad4d83ab53b42b16e77, type: 3}
    - time: 0.75
      value: {fileID: 21300000, guid: d63957437cc68504c8f508ccc53e73d3, type: 3}
    - time: 0.8333333
      value: {fileID: 21300000, guid: 2553c8e0a590ef54683e8256a77fd304, type: 3}
    - time: 0.9166667
      value: {fileID: 21300000, guid: 0c6217dc13b1d7c4fa1a5fe2424aeb2f, type: 3}
    - time: 1
      value: {fileID: 21300000, guid: c6e5358bef3839845a446126e374ef2f, type: 3}
    - time: 1.0833334
      value: {fileID: 21300000, guid: 37d88f3006e7a3a4ebabd66db31231a8, type: 3}
    - time: 1.1666666
      value: {fileID: 21300000, guid: fbb8a231b43747645b9788bf718b2fb3, type: 3}
    - time: 1.25
      value: {fileID: 21300000, guid: f229cf72e3f9fec41a53d02e7bab1323, type: 3}
    attribute: m_Sprite
    path: 
    classID: 212
    script: {fileID: 0}
  m_SampleRate: 12
  m_WrapMode: 0
  m_Bounds:
    m_Center: {x: 0, y: 0, z: 0}
    m_Extent: {x: 0, y: 0, z: 0}
  m_ClipBindingConstant:
    genericBindings:
    - serializedVersion: 2
      path: 0
      attribute: 0
      script: {fileID: 0}
      typeID: 212
      customType: 23
      isPPtrCurve: 1
    pptrCurveMapping:
    - {fileID: 21300000, guid: b701255b759305e4e927691ac82018d0, type: 3}
    - {fileID: 21300000, guid: ebcb77a539f81b349807bbf2396ba326, type: 3}
    - {fileID: 21300000, guid: 7e2cd327ac3f42446b380ed3e5071692, type: 3}
    - {fileID: 21300000, guid: 81a55281a4bd0294c8aeed7fa9bd58b7, type: 3}
    - {fileID: 21300000, guid: f193dffa1482aff42bac6dd1264ded9b, type: 3}
    - {fileID: 21300000, guid: 1a4af29d2f130d14f8e34f5733c9f8c4, type: 3}
    - {fileID: 21300000, guid: ba31ebffb0aeb564980c75cec045baf1, type: 3}
    - {fileID: 21300000, guid: b446fc25620e6af44ac70c7864fae366, type: 3}
    - {fileID: 21300000, guid: 9301efcadd368ad4d83ab53b42b16e77, type: 3}
    - {fileID: 21300000, guid: d63957437cc68504c8f508ccc53e73d3, type: 3}
    - {fileID: 21300000, guid: 2553c8e0a590ef54683e8256a77fd304, type: 3}
    - {fileID: 21300000, guid: 0c6217dc13b1d7c4fa1a5fe2424aeb2f, type: 3}
    - {fileID: 21300000, guid: c6e5358bef3839845a446126e374ef2f, type: 3}
    - {fileID: 21300000, guid: 37d88f3006e7a3a4ebabd66db31231a8, type: 3}
    - {fileID: 21300000, guid: fbb8a231b43747645b9788bf718b2fb3, type: 3}
    - {fileID: 21300000, guid: f229cf72e3f9fec41a53d02e7bab1323, type: 3}
  m_AnimationClipSettings:
    serializedVersion: 2
    m_AdditiveReferencePoseClip: {fileID: 0}
    m_AdditiveReferencePoseTime: 0
    m_StartTime: 0
    m_StopTime: 1.3333334
    m_OrientationOffsetY: 0
    m_Level: 0
    m_CycleOffset: 0
    m_HasAdditiveReferencePose: 0
    m_LoopTime: 1
    m_LoopBlend: 0
    m_LoopBlendOrientation: 0
    m_LoopBlendPositionY: 0
    m_LoopBlendPositionXZ: 0
    m_KeepOriginalOrientation: 0
    m_KeepOriginalPositionY: 1
    m_KeepOriginalPositionXZ: 0
    m_HeightFromFeet: 0
    m_Mirror: 0
  m_EditorCurves: []
  m_EulerEditorCurves: []
  m_HasGenericRootTransform: 0
  m_HasMotionFloatCurves: 0
  m_GenerateMotionCurves: 0
  m_Events: []
