%YAML 1.1
%TAG !u! tag:unity3d.com,2011:
--- !u!74 &7400000
AnimationClip:
  m_ObjectHideFlags: 0
  m_PrefabParentObject: {fileID: 0}
  m_PrefabInternal: {fileID: 0}
  m_Name: DoubleJump
  serializedVersion: 6
  m_Legacy: 0
  m_Compressed: 0
  m_UseHighQualityCurve: 1
  m_RotationCurves: []
  m_CompressedRotationCurves: []
  m_EulerCurves: []
  m_PositionCurves: []
  m_ScaleCurves: []
  m_FloatCurves: []
  m_PPtrCurves:
  - curve:
    - time: 0
      value: {fileID: 21300000, guid: 788f1166f3b473a4da939c2cab5bf733, type: 3}
    - time: 0.083333336
      value: {fileID: 21300000, guid: 3f91e454d990f154eaab3dff1e37c034, type: 3}
    - time: 0.16666667
      value: {fileID: 21300000, guid: 089a789995298c343820939e4734973e, type: 3}
    - time: 0.25
      value: {fileID: 21300000, guid: 41c3b8dc2a71a97458e59576fddbd2e8, type: 3}
    - time: 0.33333334
      value: {fileID: 21300000, guid: cfa439c8c7f39b241abe4067028bfbb5, type: 3}
    - time: 0.41666666
      value: {fileID: 21300000, guid: c530a777822303c4cb93088352e0e9cb, type: 3}
    - time: 0.5
      value: {fileID: 21300000, guid: e45e02f2664dd5448bafdf8ed6905840, type: 3}
    - time: 0.5833333
      value: {fileID: 21300000, guid: 1f5a0958ebddefe4cacbdd8d555c9496, type: 3}
    - time: 0.6666667
      value: {fileID: 21300000, guid: 4616aeea5d08f2b4f84ac2bee430dce9, type: 3}
    - time: 0.75
      value: {fileID: 21300000, guid: 4eddcb9187f7cac4dabed3d97ff98146, type: 3}
    attribute: m_Sprite
    path: 
    classID: 212
    script: {fileID: 0}
  m_SampleRate: 12
  m_WrapMode: 0
  m_Bounds:
    m_Center: {x: 0, y: 0, z: 0}
    m_Extent: {x: 0, y: 0, z: 0}
  m_ClipBindingConstant:
    genericBindings:
    - serializedVersion: 2
      path: 0
      attribute: 0
      script: {fileID: 0}
      typeID: 212
      customType: 23
      isPPtrCurve: 1
    pptrCurveMapping:
    - {fileID: 21300000, guid: 788f1166f3b473a4da939c2cab5bf733, type: 3}
    - {fileID: 21300000, guid: 3f91e454d990f154eaab3dff1e37c034, type: 3}
    - {fileID: 21300000, guid: 089a789995298c343820939e4734973e, type: 3}
    - {fileID: 21300000, guid: 41c3b8dc2a71a97458e59576fddbd2e8, type: 3}
    - {fileID: 21300000, guid: cfa439c8c7f39b241abe4067028bfbb5, type: 3}
    - {fileID: 21300000, guid: c530a777822303c4cb93088352e0e9cb, type: 3}
    - {fileID: 21300000, guid: e45e02f2664dd5448bafdf8ed6905840, type: 3}
    - {fileID: 21300000, guid: 1f5a0958ebddefe4cacbdd8d555c9496, type: 3}
    - {fileID: 21300000, guid: 4616aeea5d08f2b4f84ac2bee430dce9, type: 3}
    - {fileID: 21300000, guid: 4eddcb9187f7cac4dabed3d97ff98146, type: 3}
  m_AnimationClipSettings:
    serializedVersion: 2
    m_AdditiveReferencePoseClip: {fileID: 0}
    m_AdditiveReferencePoseTime: 0
    m_StartTime: 0
    m_StopTime: 0.8333333
    m_OrientationOffsetY: 0
    m_Level: 0
    m_CycleOffset: 0
    m_HasAdditiveReferencePose: 0
    m_LoopTime: 1
    m_LoopBlend: 0
    m_LoopBlendOrientation: 0
    m_LoopBlendPositionY: 0
    m_LoopBlendPositionXZ: 0
    m_KeepOriginalOrientation: 0
    m_KeepOriginalPositionY: 1
    m_KeepOriginalPositionXZ: 0
    m_HeightFromFeet: 0
    m_Mirror: 0
  m_EditorCurves: []
  m_EulerEditorCurves: []
  m_HasGenericRootTransform: 0
  m_HasMotionFloatCurves: 0
  m_GenerateMotionCurves: 0
  m_Events: []
