%YAML 1.1
%TAG !u! tag:unity3d.com,2011:
--- !u!74 &7400000
AnimationClip:
  m_ObjectHideFlags: 0
  m_PrefabParentObject: {fileID: 0}
  m_PrefabInternal: {fileID: 0}
  m_Name: Hurt
  serializedVersion: 6
  m_Legacy: 0
  m_Compressed: 0
  m_UseHighQualityCurve: 1
  m_RotationCurves: []
  m_CompressedRotationCurves: []
  m_EulerCurves: []
  m_PositionCurves: []
  m_ScaleCurves: []
  m_FloatCurves: []
  m_PPtrCurves:
  - curve:
    - time: 0
      value: {fileID: 21300000, guid: 819021c6dcd94114b97759587ae96baf, type: 3}
    - time: 0.083333336
      value: {fileID: 21300000, guid: 9c616f2b0c77d8b4b851d6288c2801a4, type: 3}
    - time: 0.16666667
      value: {fileID: 21300000, guid: bf9ca334886b1c5478cef3df99ff4927, type: 3}
    - time: 0.25
      value: {fileID: 21300000, guid: 4751719c3632c90418f3130c81d71d24, type: 3}
    - time: 0.33333334
      value: {fileID: 21300000, guid: 63770f0d40e1c504b9ac7c86f2fe397d, type: 3}
    - time: 0.41666666
      value: {fileID: 21300000, guid: d4993c25010908e4ea402e189d6092b1, type: 3}
    - time: 0.5
      value: {fileID: 21300000, guid: bc2ec4eaf527de548bf473c2dd168e69, type: 3}
    - time: 0.5833333
      value: {fileID: 21300000, guid: 2e1faa68f84cfc744909404f4a4c2384, type: 3}
    - time: 0.6666667
      value: {fileID: 21300000, guid: c136fa5eca5d2d340a200f06cf0f2d0f, type: 3}
    - time: 0.75
      value: {fileID: 21300000, guid: 3c3e47f6ba8a6064a9728396151f192a, type: 3}
    - time: 0.8333333
      value: {fileID: 21300000, guid: 29ce5f2829bfe9143bf8c23e08b3a747, type: 3}
    - time: 0.9166667
      value: {fileID: 21300000, guid: 292ea1d45e94b9145ac11f535a43fe97, type: 3}
    - time: 1
      value: {fileID: 21300000, guid: 6eef2d72879aa86488cec7cc6633bc8f, type: 3}
    - time: 1.0833334
      value: {fileID: 21300000, guid: 52d1ef331cea96a46a3eed246c03a4f4, type: 3}
    - time: 1.1666666
      value: {fileID: 21300000, guid: b24e739c540849141b34ae4364687ae6, type: 3}
    - time: 1.25
      value: {fileID: 21300000, guid: 9e6b08a025e968b4e8170fdbf261ad56, type: 3}
    - time: 1.3333334
      value: {fileID: 21300000, guid: bea3121092f02e74ead92001e80cb6c1, type: 3}
    - time: 1.4166666
      value: {fileID: 21300000, guid: 90c2b0654a0db1a489376d39579fc999, type: 3}
    - time: 1.5
      value: {fileID: 21300000, guid: 000c91c55fe5e114c9d05ea6bc3f7589, type: 3}
    - time: 1.5833334
      value: {fileID: 21300000, guid: 0684b43bebcf2c947a0ec05c2d7f4709, type: 3}
    - time: 1.6666666
      value: {fileID: 21300000, guid: f3182987391e43b41a9135b177b846fc, type: 3}
    - time: 1.75
      value: {fileID: 21300000, guid: 0e56495ecc94923458875384e8949959, type: 3}
    - time: 1.8333334
      value: {fileID: 21300000, guid: 07c12bf5357436e45831ba92e641f7e6, type: 3}
    - time: 1.9166666
      value: {fileID: 21300000, guid: 75db5c46f76e3b144bd198ece7ad7322, type: 3}
    - time: 2
      value: {fileID: 21300000, guid: 1337531b7ef9cba45a31b93f507fc329, type: 3}
    - time: 2.0833333
      value: {fileID: 21300000, guid: 871d6cf9f8fc5fc419ed4586fae024db, type: 3}
    - time: 2.1666667
      value: {fileID: 21300000, guid: 1c6b26a553f121f43a846b03adbea844, type: 3}
    - time: 2.25
      value: {fileID: 21300000, guid: 8aebbe45e806a274189571286c0ecefe, type: 3}
    - time: 2.3333333
      value: {fileID: 21300000, guid: 42b350174f90a734e926d2ef8ab505d2, type: 3}
    - time: 2.4166667
      value: {fileID: 21300000, guid: 4aa8656e3a170aa4493c876990a5246f, type: 3}
    - time: 2.5
      value: {fileID: 21300000, guid: 92a3f72ede2c55749afc5e59da9e4381, type: 3}
    attribute: m_Sprite
    path: 
    classID: 212
    script: {fileID: 0}
  m_SampleRate: 12
  m_WrapMode: 0
  m_Bounds:
    m_Center: {x: 0, y: 0, z: 0}
    m_Extent: {x: 0, y: 0, z: 0}
  m_ClipBindingConstant:
    genericBindings:
    - serializedVersion: 2
      path: 0
      attribute: 0
      script: {fileID: 0}
      typeID: 212
      customType: 23
      isPPtrCurve: 1
    pptrCurveMapping:
    - {fileID: 21300000, guid: 819021c6dcd94114b97759587ae96baf, type: 3}
    - {fileID: 21300000, guid: 9c616f2b0c77d8b4b851d6288c2801a4, type: 3}
    - {fileID: 21300000, guid: bf9ca334886b1c5478cef3df99ff4927, type: 3}
    - {fileID: 21300000, guid: 4751719c3632c90418f3130c81d71d24, type: 3}
    - {fileID: 21300000, guid: 63770f0d40e1c504b9ac7c86f2fe397d, type: 3}
    - {fileID: 21300000, guid: d4993c25010908e4ea402e189d6092b1, type: 3}
    - {fileID: 21300000, guid: bc2ec4eaf527de548bf473c2dd168e69, type: 3}
    - {fileID: 21300000, guid: 2e1faa68f84cfc744909404f4a4c2384, type: 3}
    - {fileID: 21300000, guid: c136fa5eca5d2d340a200f06cf0f2d0f, type: 3}
    - {fileID: 21300000, guid: 3c3e47f6ba8a6064a9728396151f192a, type: 3}
    - {fileID: 21300000, guid: 29ce5f2829bfe9143bf8c23e08b3a747, type: 3}
    - {fileID: 21300000, guid: 292ea1d45e94b9145ac11f535a43fe97, type: 3}
    - {fileID: 21300000, guid: 6eef2d72879aa86488cec7cc6633bc8f, type: 3}
    - {fileID: 21300000, guid: 52d1ef331cea96a46a3eed246c03a4f4, type: 3}
    - {fileID: 21300000, guid: b24e739c540849141b34ae4364687ae6, type: 3}
    - {fileID: 21300000, guid: 9e6b08a025e968b4e8170fdbf261ad56, type: 3}
    - {fileID: 21300000, guid: bea3121092f02e74ead92001e80cb6c1, type: 3}
    - {fileID: 21300000, guid: 90c2b0654a0db1a489376d39579fc999, type: 3}
    - {fileID: 21300000, guid: 000c91c55fe5e114c9d05ea6bc3f7589, type: 3}
    - {fileID: 21300000, guid: 0684b43bebcf2c947a0ec05c2d7f4709, type: 3}
    - {fileID: 21300000, guid: f3182987391e43b41a9135b177b846fc, type: 3}
    - {fileID: 21300000, guid: 0e56495ecc94923458875384e8949959, type: 3}
    - {fileID: 21300000, guid: 07c12bf5357436e45831ba92e641f7e6, type: 3}
    - {fileID: 21300000, guid: 75db5c46f76e3b144bd198ece7ad7322, type: 3}
    - {fileID: 21300000, guid: 1337531b7ef9cba45a31b93f507fc329, type: 3}
    - {fileID: 21300000, guid: 871d6cf9f8fc5fc419ed4586fae024db, type: 3}
    - {fileID: 21300000, guid: 1c6b26a553f121f43a846b03adbea844, type: 3}
    - {fileID: 21300000, guid: 8aebbe45e806a274189571286c0ecefe, type: 3}
    - {fileID: 21300000, guid: 42b350174f90a734e926d2ef8ab505d2, type: 3}
    - {fileID: 21300000, guid: 4aa8656e3a170aa4493c876990a5246f, type: 3}
    - {fileID: 21300000, guid: 92a3f72ede2c55749afc5e59da9e4381, type: 3}
  m_AnimationClipSettings:
    serializedVersion: 2
    m_AdditiveReferencePoseClip: {fileID: 0}
    m_AdditiveReferencePoseTime: 0
    m_StartTime: 0
    m_StopTime: 2.5833333
    m_OrientationOffsetY: 0
    m_Level: 0
    m_CycleOffset: 0
    m_HasAdditiveReferencePose: 0
    m_LoopTime: 1
    m_LoopBlend: 0
    m_LoopBlendOrientation: 0
    m_LoopBlendPositionY: 0
    m_LoopBlendPositionXZ: 0
    m_KeepOriginalOrientation: 0
    m_KeepOriginalPositionY: 1
    m_KeepOriginalPositionXZ: 0
    m_HeightFromFeet: 0
    m_Mirror: 0
  m_EditorCurves: []
  m_EulerEditorCurves: []
  m_HasGenericRootTransform: 0
  m_HasMotionFloatCurves: 0
  m_GenerateMotionCurves: 0
  m_Events: []
