%YAML 1.1
%TAG !u! tag:unity3d.com,2011:
--- !u!74 &7400000
AnimationClip:
  m_ObjectHideFlags: 0
  m_PrefabParentObject: {fileID: 0}
  m_PrefabInternal: {fileID: 0}
  m_Name: IdleToRun
  serializedVersion: 6
  m_Legacy: 0
  m_Compressed: 0
  m_UseHighQualityCurve: 1
  m_RotationCurves: []
  m_CompressedRotationCurves: []
  m_EulerCurves: []
  m_PositionCurves: []
  m_ScaleCurves: []
  m_FloatCurves: []
  m_PPtrCurves:
  - curve:
    - time: 0
      value: {fileID: 21300000, guid: d8cfbbd7e97dce6448d64ed81e182f6b, type: 3}
    - time: 0.083333336
      value: {fileID: 21300000, guid: 2348143b379f9674b811cd2cfc43d40f, type: 3}
    - time: 0.16666667
      value: {fileID: 21300000, guid: b0bce784906c3e646b870d5e8256ad3b, type: 3}
    - time: 0.25
      value: {fileID: 21300000, guid: 0cc04e1e32c9cca41be26893a570d8d3, type: 3}
    - time: 0.33333334
      value: {fileID: 21300000, guid: 110270b435afd9b478d9838536cd4389, type: 3}
    - time: 0.41666666
      value: {fileID: 21300000, guid: 34fd63076ba94c942ba62ba79fa04c0a, type: 3}
    - time: 0.5
      value: {fileID: 21300000, guid: 4021bd9c8c3d4104ab2e49690e2abe80, type: 3}
    - time: 0.5833333
      value: {fileID: 21300000, guid: dad93bcbe966e8e41829a98f0496c105, type: 3}
    - time: 0.6666667
      value: {fileID: 21300000, guid: 6a8e43cfb228f7546b41bb2389266737, type: 3}
    - time: 0.75
      value: {fileID: 21300000, guid: 9eb8162e196c52d4c843888ea7615d7f, type: 3}
    attribute: m_Sprite
    path: 
    classID: 212
    script: {fileID: 0}
  m_SampleRate: 12
  m_WrapMode: 0
  m_Bounds:
    m_Center: {x: 0, y: 0, z: 0}
    m_Extent: {x: 0, y: 0, z: 0}
  m_ClipBindingConstant:
    genericBindings:
    - serializedVersion: 2
      path: 0
      attribute: 0
      script: {fileID: 0}
      typeID: 212
      customType: 23
      isPPtrCurve: 1
    pptrCurveMapping:
    - {fileID: 21300000, guid: d8cfbbd7e97dce6448d64ed81e182f6b, type: 3}
    - {fileID: 21300000, guid: 2348143b379f9674b811cd2cfc43d40f, type: 3}
    - {fileID: 21300000, guid: b0bce784906c3e646b870d5e8256ad3b, type: 3}
    - {fileID: 21300000, guid: 0cc04e1e32c9cca41be26893a570d8d3, type: 3}
    - {fileID: 21300000, guid: 110270b435afd9b478d9838536cd4389, type: 3}
    - {fileID: 21300000, guid: 34fd63076ba94c942ba62ba79fa04c0a, type: 3}
    - {fileID: 21300000, guid: 4021bd9c8c3d4104ab2e49690e2abe80, type: 3}
    - {fileID: 21300000, guid: dad93bcbe966e8e41829a98f0496c105, type: 3}
    - {fileID: 21300000, guid: 6a8e43cfb228f7546b41bb2389266737, type: 3}
    - {fileID: 21300000, guid: 9eb8162e196c52d4c843888ea7615d7f, type: 3}
  m_AnimationClipSettings:
    serializedVersion: 2
    m_AdditiveReferencePoseClip: {fileID: 0}
    m_AdditiveReferencePoseTime: 0
    m_StartTime: 0
    m_StopTime: 0.8333333
    m_OrientationOffsetY: 0
    m_Level: 0
    m_CycleOffset: 0
    m_HasAdditiveReferencePose: 0
    m_LoopTime: 1
    m_LoopBlend: 0
    m_LoopBlendOrientation: 0
    m_LoopBlendPositionY: 0
    m_LoopBlendPositionXZ: 0
    m_KeepOriginalOrientation: 0
    m_KeepOriginalPositionY: 1
    m_KeepOriginalPositionXZ: 0
    m_HeightFromFeet: 0
    m_Mirror: 0
  m_EditorCurves: []
  m_EulerEditorCurves: []
  m_HasGenericRootTransform: 0
  m_HasMotionFloatCurves: 0
  m_GenerateMotionCurves: 0
  m_Events: []
