%YAML 1.1
%TAG !u! tag:unity3d.com,2011:
--- !u!74 &7400000
AnimationClip:
  m_ObjectHideFlags: 0
  m_PrefabParentObject: {fileID: 0}
  m_PrefabInternal: {fileID: 0}
  m_Name: InAirAttackToInAir
  serializedVersion: 6
  m_Legacy: 0
  m_Compressed: 0
  m_UseHighQualityCurve: 1
  m_RotationCurves: []
  m_CompressedRotationCurves: []
  m_EulerCurves: []
  m_PositionCurves: []
  m_ScaleCurves: []
  m_FloatCurves: []
  m_PPtrCurves:
  - curve:
    - time: 0
      value: {fileID: 21300000, guid: 05143206482a95246a6cabf81529113e, type: 3}
    - time: 0.083333336
      value: {fileID: 21300000, guid: 51bd8a019f714904fb25fde79b19b677, type: 3}
    - time: 0.16666667
      value: {fileID: 21300000, guid: 4b1a53d3db87967439fce7f793f995cf, type: 3}
    - time: 0.25
      value: {fileID: 21300000, guid: f42b025da01640047a28d3bb31d236a0, type: 3}
    - time: 0.33333334
      value: {fileID: 21300000, guid: acfd8adc6af202743b773cdb1053f23b, type: 3}
    - time: 0.41666666
      value: {fileID: 21300000, guid: 6b6218a9f674ca54aabb398c25971978, type: 3}
    - time: 0.5
      value: {fileID: 21300000, guid: 4069aadc98599d74b9fadf2491c478d8, type: 3}
    - time: 0.5833333
      value: {fileID: 21300000, guid: b8a5196dfade2bb41a0b481dd07cd3e7, type: 3}
    - time: 0.6666667
      value: {fileID: 21300000, guid: 6b53ec4cf19a669448456bcf9385fc93, type: 3}
    - time: 0.75
      value: {fileID: 21300000, guid: b118cfdc80ab72949871a97e0c479bd9, type: 3}
    attribute: m_Sprite
    path: 
    classID: 212
    script: {fileID: 0}
  m_SampleRate: 12
  m_WrapMode: 0
  m_Bounds:
    m_Center: {x: 0, y: 0, z: 0}
    m_Extent: {x: 0, y: 0, z: 0}
  m_ClipBindingConstant:
    genericBindings:
    - serializedVersion: 2
      path: 0
      attribute: 0
      script: {fileID: 0}
      typeID: 212
      customType: 23
      isPPtrCurve: 1
    pptrCurveMapping:
    - {fileID: 21300000, guid: 05143206482a95246a6cabf81529113e, type: 3}
    - {fileID: 21300000, guid: 51bd8a019f714904fb25fde79b19b677, type: 3}
    - {fileID: 21300000, guid: 4b1a53d3db87967439fce7f793f995cf, type: 3}
    - {fileID: 21300000, guid: f42b025da01640047a28d3bb31d236a0, type: 3}
    - {fileID: 21300000, guid: acfd8adc6af202743b773cdb1053f23b, type: 3}
    - {fileID: 21300000, guid: 6b6218a9f674ca54aabb398c25971978, type: 3}
    - {fileID: 21300000, guid: 4069aadc98599d74b9fadf2491c478d8, type: 3}
    - {fileID: 21300000, guid: b8a5196dfade2bb41a0b481dd07cd3e7, type: 3}
    - {fileID: 21300000, guid: 6b53ec4cf19a669448456bcf9385fc93, type: 3}
    - {fileID: 21300000, guid: b118cfdc80ab72949871a97e0c479bd9, type: 3}
  m_AnimationClipSettings:
    serializedVersion: 2
    m_AdditiveReferencePoseClip: {fileID: 0}
    m_AdditiveReferencePoseTime: 0
    m_StartTime: 0
    m_StopTime: 0.8333333
    m_OrientationOffsetY: 0
    m_Level: 0
    m_CycleOffset: 0
    m_HasAdditiveReferencePose: 0
    m_LoopTime: 1
    m_LoopBlend: 0
    m_LoopBlendOrientation: 0
    m_LoopBlendPositionY: 0
    m_LoopBlendPositionXZ: 0
    m_KeepOriginalOrientation: 0
    m_KeepOriginalPositionY: 1
    m_KeepOriginalPositionXZ: 0
    m_HeightFromFeet: 0
    m_Mirror: 0
  m_EditorCurves: []
  m_EulerEditorCurves: []
  m_HasGenericRootTransform: 0
  m_HasMotionFloatCurves: 0
  m_GenerateMotionCurves: 0
  m_Events: []
