%YAML 1.1
%TAG !u! tag:unity3d.com,2011:
--- !u!74 &7400000
AnimationClip:
  m_ObjectHideFlags: 0
  m_PrefabParentObject: {fileID: 0}
  m_PrefabInternal: {fileID: 0}
  m_Name: Attack1
  serializedVersion: 6
  m_Legacy: 0
  m_Compressed: 0
  m_UseHighQualityCurve: 1
  m_RotationCurves: []
  m_CompressedRotationCurves: []
  m_EulerCurves: []
  m_PositionCurves: []
  m_ScaleCurves: []
  m_FloatCurves: []
  m_PPtrCurves:
  - curve:
    - time: 0
      value: {fileID: 21300000, guid: 32b3f87f32ad75346a239382c4a5414a, type: 3}
    - time: 0.083333336
      value: {fileID: 21300000, guid: 013a362a38d8f094e92a2ebaaa9fb246, type: 3}
    - time: 0.16666667
      value: {fileID: 21300000, guid: f0a359fed97943a47abc2d95a5c807da, type: 3}
    - time: 0.25
      value: {fileID: 21300000, guid: 152e0be5e67ca1a41ad16ee7c37d41ca, type: 3}
    - time: 0.33333334
      value: {fileID: 21300000, guid: a0f587a661ae84443801098470214fb3, type: 3}
    - time: 0.41666666
      value: {fileID: 21300000, guid: 691cd11a7c1a6c9489925e3c76cf717f, type: 3}
    - time: 0.5
      value: {fileID: 21300000, guid: b8a4ae306fc33b2469fc47bfcd688a77, type: 3}
    - time: 0.5833333
      value: {fileID: 21300000, guid: 9d58761a51557444186ca0bbe31cd2fa, type: 3}
    - time: 0.6666667
      value: {fileID: 21300000, guid: f78b4ba803180e444a793758c2791918, type: 3}
    - time: 0.75
      value: {fileID: 21300000, guid: a4c71106f82771d438bcbb5c006fbe87, type: 3}
    - time: 0.8333333
      value: {fileID: 21300000, guid: fe231f34230f7c5429b77f554283b2a4, type: 3}
    - time: 0.9166667
      value: {fileID: 21300000, guid: 0139a4eaa0f00974bbe155044bf47b6c, type: 3}
    - time: 1
      value: {fileID: 21300000, guid: 1e9f21f0e62bfa04cb324dd214dba743, type: 3}
    - time: 1.0833334
      value: {fileID: 21300000, guid: 7fa3d67ef78a63b478876675364afd7f, type: 3}
    - time: 1.1666666
      value: {fileID: 21300000, guid: f597b7586200bf84bb8de9e8318d65c9, type: 3}
    - time: 1.25
      value: {fileID: 21300000, guid: a1a383ddf3aa1924aa22a61a30db48d0, type: 3}
    attribute: m_Sprite
    path: 
    classID: 212
    script: {fileID: 0}
  m_SampleRate: 12
  m_WrapMode: 0
  m_Bounds:
    m_Center: {x: 0, y: 0, z: 0}
    m_Extent: {x: 0, y: 0, z: 0}
  m_ClipBindingConstant:
    genericBindings:
    - serializedVersion: 2
      path: 0
      attribute: 0
      script: {fileID: 0}
      typeID: 212
      customType: 23
      isPPtrCurve: 1
    pptrCurveMapping:
    - {fileID: 21300000, guid: 32b3f87f32ad75346a239382c4a5414a, type: 3}
    - {fileID: 21300000, guid: 013a362a38d8f094e92a2ebaaa9fb246, type: 3}
    - {fileID: 21300000, guid: f0a359fed97943a47abc2d95a5c807da, type: 3}
    - {fileID: 21300000, guid: 152e0be5e67ca1a41ad16ee7c37d41ca, type: 3}
    - {fileID: 21300000, guid: a0f587a661ae84443801098470214fb3, type: 3}
    - {fileID: 21300000, guid: 691cd11a7c1a6c9489925e3c76cf717f, type: 3}
    - {fileID: 21300000, guid: b8a4ae306fc33b2469fc47bfcd688a77, type: 3}
    - {fileID: 21300000, guid: 9d58761a51557444186ca0bbe31cd2fa, type: 3}
    - {fileID: 21300000, guid: f78b4ba803180e444a793758c2791918, type: 3}
    - {fileID: 21300000, guid: a4c71106f82771d438bcbb5c006fbe87, type: 3}
    - {fileID: 21300000, guid: fe231f34230f7c5429b77f554283b2a4, type: 3}
    - {fileID: 21300000, guid: 0139a4eaa0f00974bbe155044bf47b6c, type: 3}
    - {fileID: 21300000, guid: 1e9f21f0e62bfa04cb324dd214dba743, type: 3}
    - {fileID: 21300000, guid: 7fa3d67ef78a63b478876675364afd7f, type: 3}
    - {fileID: 21300000, guid: f597b7586200bf84bb8de9e8318d65c9, type: 3}
    - {fileID: 21300000, guid: a1a383ddf3aa1924aa22a61a30db48d0, type: 3}
  m_AnimationClipSettings:
    serializedVersion: 2
    m_AdditiveReferencePoseClip: {fileID: 0}
    m_AdditiveReferencePoseTime: 0
    m_StartTime: 0
    m_StopTime: 1.3333334
    m_OrientationOffsetY: 0
    m_Level: 0
    m_CycleOffset: 0
    m_HasAdditiveReferencePose: 0
    m_LoopTime: 0
    m_LoopBlend: 0
    m_LoopBlendOrientation: 0
    m_LoopBlendPositionY: 0
    m_LoopBlendPositionXZ: 0
    m_KeepOriginalOrientation: 0
    m_KeepOriginalPositionY: 1
    m_KeepOriginalPositionXZ: 0
    m_HeightFromFeet: 0
    m_Mirror: 0
  m_EditorCurves: []
  m_EulerEditorCurves: []
  m_HasGenericRootTransform: 0
  m_HasMotionFloatCurves: 0
  m_GenerateMotionCurves: 0
  m_Events: []
