%YAML 1.1
%TAG !u! tag:unity3d.com,2011:
--- !u!74 &7400000
AnimationClip:
  m_ObjectHideFlags: 0
  m_PrefabParentObject: {fileID: 0}
  m_PrefabInternal: {fileID: 0}
  m_Name: InAirAttack
  serializedVersion: 6
  m_Legacy: 0
  m_Compressed: 0
  m_UseHighQualityCurve: 1
  m_RotationCurves: []
  m_CompressedRotationCurves: []
  m_EulerCurves: []
  m_PositionCurves: []
  m_ScaleCurves: []
  m_FloatCurves: []
  m_PPtrCurves:
  - curve:
    - time: 0
      value: {fileID: 21300000, guid: cc7f5fd518d1c0f43af83532fa25a717, type: 3}
    - time: 0.083333336
      value: {fileID: 21300000, guid: cac100e3edb649541ad0a8a926f89c78, type: 3}
    - time: 0.16666667
      value: {fileID: 21300000, guid: c8f3a3afdd8ccac428c288a39fef7d25, type: 3}
    - time: 0.25
      value: {fileID: 21300000, guid: 5c38711fae2865b4d9cc0bcf0a787ea4, type: 3}
    - time: 0.33333334
      value: {fileID: 21300000, guid: 690049fe53e5286429b7ae9922def8a5, type: 3}
    - time: 0.41666666
      value: {fileID: 21300000, guid: 4916de191417a91469a016c9a624dcab, type: 3}
    - time: 0.5
      value: {fileID: 21300000, guid: 40bcae03abdfdd04182d6d9b0baf148f, type: 3}
    - time: 0.5833333
      value: {fileID: 21300000, guid: 2c9bb4bec0abce841bfef61521d6bace, type: 3}
    - time: 0.6666667
      value: {fileID: 21300000, guid: c4402d53a7f7a8346b80e6e8de7056ee, type: 3}
    - time: 0.75
      value: {fileID: 21300000, guid: a826d83c5b45fc94ab950ea9ddff782c, type: 3}
    - time: 0.8333333
      value: {fileID: 21300000, guid: e854781fabff89c4197087d93c024024, type: 3}
    - time: 0.9166667
      value: {fileID: 21300000, guid: c90121407f4fc5d40875a3818705619a, type: 3}
    - time: 1
      value: {fileID: 21300000, guid: ab0edd3ba55c86c49939c5cd959bc13a, type: 3}
    - time: 1.0833334
      value: {fileID: 21300000, guid: 0b33a06cac34a334ebbb1aa03daffa70, type: 3}
    - time: 1.1666666
      value: {fileID: 21300000, guid: 89b08e75f1944eb46967ad185e3477c1, type: 3}
    - time: 1.25
      value: {fileID: 21300000, guid: 51a934ec13c795140a8cf527226b5542, type: 3}
    attribute: m_Sprite
    path: 
    classID: 212
    script: {fileID: 0}
  m_SampleRate: 12
  m_WrapMode: 0
  m_Bounds:
    m_Center: {x: 0, y: 0, z: 0}
    m_Extent: {x: 0, y: 0, z: 0}
  m_ClipBindingConstant:
    genericBindings:
    - serializedVersion: 2
      path: 0
      attribute: 0
      script: {fileID: 0}
      typeID: 212
      customType: 23
      isPPtrCurve: 1
    pptrCurveMapping:
    - {fileID: 21300000, guid: cc7f5fd518d1c0f43af83532fa25a717, type: 3}
    - {fileID: 21300000, guid: cac100e3edb649541ad0a8a926f89c78, type: 3}
    - {fileID: 21300000, guid: c8f3a3afdd8ccac428c288a39fef7d25, type: 3}
    - {fileID: 21300000, guid: 5c38711fae2865b4d9cc0bcf0a787ea4, type: 3}
    - {fileID: 21300000, guid: 690049fe53e5286429b7ae9922def8a5, type: 3}
    - {fileID: 21300000, guid: 4916de191417a91469a016c9a624dcab, type: 3}
    - {fileID: 21300000, guid: 40bcae03abdfdd04182d6d9b0baf148f, type: 3}
    - {fileID: 21300000, guid: 2c9bb4bec0abce841bfef61521d6bace, type: 3}
    - {fileID: 21300000, guid: c4402d53a7f7a8346b80e6e8de7056ee, type: 3}
    - {fileID: 21300000, guid: a826d83c5b45fc94ab950ea9ddff782c, type: 3}
    - {fileID: 21300000, guid: e854781fabff89c4197087d93c024024, type: 3}
    - {fileID: 21300000, guid: c90121407f4fc5d40875a3818705619a, type: 3}
    - {fileID: 21300000, guid: ab0edd3ba55c86c49939c5cd959bc13a, type: 3}
    - {fileID: 21300000, guid: 0b33a06cac34a334ebbb1aa03daffa70, type: 3}
    - {fileID: 21300000, guid: 89b08e75f1944eb46967ad185e3477c1, type: 3}
    - {fileID: 21300000, guid: 51a934ec13c795140a8cf527226b5542, type: 3}
  m_AnimationClipSettings:
    serializedVersion: 2
    m_AdditiveReferencePoseClip: {fileID: 0}
    m_AdditiveReferencePoseTime: 0
    m_StartTime: 0
    m_StopTime: 1.3333334
    m_OrientationOffsetY: 0
    m_Level: 0
    m_CycleOffset: 0
    m_HasAdditiveReferencePose: 0
    m_LoopTime: 0
    m_LoopBlend: 0
    m_LoopBlendOrientation: 0
    m_LoopBlendPositionY: 0
    m_LoopBlendPositionXZ: 0
    m_KeepOriginalOrientation: 0
    m_KeepOriginalPositionY: 1
    m_KeepOriginalPositionXZ: 0
    m_HeightFromFeet: 0
    m_Mirror: 0
  m_EditorCurves: []
  m_EulerEditorCurves: []
  m_HasGenericRootTransform: 0
  m_HasMotionFloatCurves: 0
  m_GenerateMotionCurves: 0
  m_Events: []
