%YAML 1.1
%TAG !u! tag:unity3d.com,2011:
--- !u!74 &7400000
AnimationClip:
  m_ObjectHideFlags: 0
  m_PrefabParentObject: {fileID: 0}
  m_PrefabInternal: {fileID: 0}
  m_Name: RunningDash
  serializedVersion: 6
  m_Legacy: 0
  m_Compressed: 0
  m_UseHighQualityCurve: 1
  m_RotationCurves: []
  m_CompressedRotationCurves: []
  m_EulerCurves: []
  m_PositionCurves: []
  m_ScaleCurves: []
  m_FloatCurves: []
  m_PPtrCurves:
  - curve:
    - time: 0
      value: {fileID: 21300000, guid: efe40aa3c71e6104e8b0874c34b0cebd, type: 3}
    - time: 0.083333336
      value: {fileID: 21300000, guid: 8f6524244fb27da4b9aeae209a72454b, type: 3}
    - time: 0.16666667
      value: {fileID: 21300000, guid: f0a531972a2e5264da5c3cab251933be, type: 3}
    - time: 0.25
      value: {fileID: 21300000, guid: 3dccc1cf2a5aff3458fd40a52b7494c4, type: 3}
    - time: 0.33333334
      value: {fileID: 21300000, guid: 68aac11a177944940909d567f14e92be, type: 3}
    - time: 0.41666666
      value: {fileID: 21300000, guid: e727448219d5d9e43b8cdee01839bab2, type: 3}
    - time: 0.5
      value: {fileID: 21300000, guid: 7bebac8cbad684442bc22d236204e79c, type: 3}
    - time: 0.5833333
      value: {fileID: 21300000, guid: 7d8d870c80435a5438c4a8ffbc21744c, type: 3}
    - time: 0.6666667
      value: {fileID: 21300000, guid: de86cbe6e22007844b1f7b34fc4a0ea5, type: 3}
    - time: 0.75
      value: {fileID: 21300000, guid: db59f9d5da75cd94686fe947509483f0, type: 3}
    attribute: m_Sprite
    path: 
    classID: 212
    script: {fileID: 0}
  m_SampleRate: 12
  m_WrapMode: 0
  m_Bounds:
    m_Center: {x: 0, y: 0, z: 0}
    m_Extent: {x: 0, y: 0, z: 0}
  m_ClipBindingConstant:
    genericBindings:
    - serializedVersion: 2
      path: 0
      attribute: 0
      script: {fileID: 0}
      typeID: 212
      customType: 23
      isPPtrCurve: 1
    pptrCurveMapping:
    - {fileID: 21300000, guid: efe40aa3c71e6104e8b0874c34b0cebd, type: 3}
    - {fileID: 21300000, guid: 8f6524244fb27da4b9aeae209a72454b, type: 3}
    - {fileID: 21300000, guid: f0a531972a2e5264da5c3cab251933be, type: 3}
    - {fileID: 21300000, guid: 3dccc1cf2a5aff3458fd40a52b7494c4, type: 3}
    - {fileID: 21300000, guid: 68aac11a177944940909d567f14e92be, type: 3}
    - {fileID: 21300000, guid: e727448219d5d9e43b8cdee01839bab2, type: 3}
    - {fileID: 21300000, guid: 7bebac8cbad684442bc22d236204e79c, type: 3}
    - {fileID: 21300000, guid: 7d8d870c80435a5438c4a8ffbc21744c, type: 3}
    - {fileID: 21300000, guid: de86cbe6e22007844b1f7b34fc4a0ea5, type: 3}
    - {fileID: 21300000, guid: db59f9d5da75cd94686fe947509483f0, type: 3}
  m_AnimationClipSettings:
    serializedVersion: 2
    m_AdditiveReferencePoseClip: {fileID: 0}
    m_AdditiveReferencePoseTime: 0
    m_StartTime: 0
    m_StopTime: 0.8333333
    m_OrientationOffsetY: 0
    m_Level: 0
    m_CycleOffset: 0
    m_HasAdditiveReferencePose: 0
    m_LoopTime: 0
    m_LoopBlend: 0
    m_LoopBlendOrientation: 0
    m_LoopBlendPositionY: 0
    m_LoopBlendPositionXZ: 0
    m_KeepOriginalOrientation: 0
    m_KeepOriginalPositionY: 1
    m_KeepOriginalPositionXZ: 0
    m_HeightFromFeet: 0
    m_Mirror: 0
  m_EditorCurves: []
  m_EulerEditorCurves: []
  m_HasGenericRootTransform: 0
  m_HasMotionFloatCurves: 0
  m_GenerateMotionCurves: 0
  m_Events: []
